{
    "libc++.dylib": 1,
    "libz.dylib": 2,
    "libiconv.dylib": 1,
    "CoreVideo.framework": 1,
    "CoreText.framework": 1,
    "CoreMedia.framework": 1,
    "QuartzCore.framework": 1,
    "AudioToolbox.framework": 3,
    "OpenGLES.framework": 1,
    "Accelerate.framework": 1,
    "ImageIO.framework": 1,
    "CoreLocation.framework": 2,
    "AVFoundation.framework": 1,
    "libz.tbd": 1,
    "LocalAuthentication.framework": 1,
    "Security.framework": 2,
    "WebKit.framework": 1,
    "libsqlite3.dylib": 1,
    "CFNetwork.framework": 1,
    "Foundation.framework": 1,
    "SystemConfiguration.framework": 1,
    "UIKit.framework": 1,
    "CoreTelephony.framework": 1,
    "CoreData.framework": 1,
    "StoreKit.framework": 1
}