{
  "cordova-plugin-app-version": {
    "source": {
      "type": "registry",
      "id": "cordova-plugin-app-version@latest"
    },
    "is_top_level": true,
    "variables": {}
  },
  "cordova-plugin-cache-clear": {
    "source": {
      "type": "registry",
      "id": "cordova-plugin-cache-clear@latest"
    },
    "is_top_level": true,
    "variables": {}
  },
  "cordova-plugin-camera": {
    "source": {
      "type": "registry",
      "id": "cordova-plugin-camera@latest"
    },
    "is_top_level": true,
    "variables": {
      "CAMERA_USAGE_DESCRIPTION": "Our users are car sales people. They use the camera to email pictures of cars, scan vehicle vin codes and send driver licenses to our secure subscription base web service.",
      "PHOTOLIBRARY_USAGE_DESCRIPTION": "Our users can upload photos to our subscription base web service"
    }
  },
  "cordova-plugin-compat": {
    "source": {
      "type": "registry",
      "id": "cordova-plugin-compat@latest"
    },
    "is_top_level": true,
    "variables": {}
  },
  "cordova-plugin-device": {
    "source": {
      "type": "registry",
      "id": "cordova-plugin-device@latest"
    },
    "is_top_level": true,
    "variables": {}
  },
  "cordova-plugin-dialogs": {
    "source": {
      "type": "registry",
      "id": "cordova-plugin-dialogs@latest"
    },
    "is_top_level": true,
    "variables": {}
  },
  "cordova-plugin-disable-nsapptransportsecurity": {
    "source": {
      "type": "registry",
      "id": "cordova-plugin-disable-nsapptransportsecurity@latest"
    },
    "is_top_level": true,
    "variables": {}
  },
  "cordova-plugin-file": {
    "source": {
      "type": "registry",
      "id": "cordova-plugin-file@latest"
    },
    "is_top_level": true,
    "variables": {}
  },
  "cordova-plugin-file-transfer": {
    "source": {
      "type": "registry",
      "id": "cordova-plugin-file-transfer@latest"
    },
    "is_top_level": true,
    "variables": {}
  },
  "cordova-plugin-inappbrowser": {
    "source": {
      "type": "registry",
      "id": "cordova-plugin-inappbrowser@latest"
    },
    "is_top_level": true,
    "variables": {}
  },
  "cordova-plugin-media": {
    "source": {
      "type": "registry",
      "id": "cordova-plugin-media@latest"
    },
    "is_top_level": true,
    "variables": {}
  },
  "cordova-plugin-media-capture": {
    "source": {
      "type": "registry",
      "id": "cordova-plugin-media-capture@latest"
    },
    "is_top_level": true,
    "variables": {}
  },
  "cordova-plugin-printer": {
    "source": {
      "type": "registry",
      "id": "cordova-plugin-printer@latest"
    },
    "is_top_level": true,
    "variables": {}
  },
  "cordova-plugin-splashscreen": {
    "source": {
      "type": "registry",
      "id": "cordova-plugin-splashscreen@latest"
    },
    "is_top_level": true,
    "variables": {}
  },
  "cordova-plugin-statusbar": {
    "source": {
      "type": "registry",
      "id": "cordova-plugin-statusbar@latest"
    },
    "is_top_level": true,
    "variables": {}
  },
  "cordova-plugin-touchid": {
    "source": {
      "type": "registry",
      "id": "cordova-plugin-touchid@latest"
    },
    "is_top_level": true,
    "variables": {}
  },
  "cordova-plugin-vibration": {
    "source": {
      "type": "registry",
      "id": "cordova-plugin-vibration@latest"
    },
    "is_top_level": true,
    "variables": {}
  },
  "cordova-plugin-whitelist": {
    "source": {
      "type": "registry",
      "id": "cordova-plugin-whitelist@latest"
    },
    "is_top_level": true,
    "variables": {}
  },
  "cordova-plugin-wkwebview-engine": {
    "source": {
      "type": "registry",
      "id": "cordova-plugin-wkwebview-engine@latest"
    },
    "is_top_level": true,
    "variables": {}
  },
  "ionic-plugin-keyboard": {
    "source": {
      "type": "registry",
      "id": "ionic-plugin-keyboard@latest"
    },
    "is_top_level": true,
    "variables": {}
  },
  "urbanairship-cordova": {
    "source": {
      "type": "registry",
      "id": "urbanairship-cordova@latest"
    },
    "is_top_level": true,
    "variables": {}
  },
  "cordova-plugin-intercom": {
    "source": {
      "type": "registry",
      "id": "cordova-plugin-intercom@latest"
    },
    "is_top_level": true,
    "variables": {}
  },
  "com.microblink.BlinkIdScanner": {
    "source": {
      "type": "local",
      "path": "/Users/greggreenhaw/Documents/suite/cordova-ios/node_modules/blinkid"
    },
    "is_top_level": true,
    "variables": {}
  }
}