<?xml version="1.0" standalone="no"?>
<!DOCTYPE svg PUBLIC "-//W3C//DTD SVG 1.1//EN" "http://www.w3.org/Graphics/SVG/1.1/DTD/svg11.dtd">
<svg xmlns="http://www.w3.org/2000/svg"><defs><font id="flaticon" horiz-adv-x="512"><font-face units-per-em="512" ascent="448" descent="-64" x-height="240" cap-height="480"/><missing-glyph horiz-adv-x="512"/><glyph unicode="&#xE000;" glyph-name="businessman137" horiz-adv-x="512" d="M54.44416 201.89248v-93.49376h152.11136V201.89248H54.44416zM132.66688 135.98144c-10.25024 0 -18.55552 8.34688 -18.55552 18.62656 c0 10.28608 8.30528 18.62592 18.55552 18.62592c10.25024 0 18.55552 -8.3392 18.55552 -18.62592C151.2224 144.32832 142.91712 135.98144 132.66688 135.98144zM512 19.2H0V92.28224h512V19.2zM298.43072 310.46912c0 30.01664 23.99936 54.33088 53.61152 54.33088c29.61152 0 53.63904 -24.3136 53.63904 -54.33088 c0 -30.02304 -24.02752 -54.32384 -53.63904 -54.32384C322.43008 256.14592 298.43072 280.44608 298.43072 310.46912zM245.33376 108.39872 c3.9584 56.90368 18.1664 95.97568 43.62496 118.81344c5.40224 4.86592 11.12512 9.31648 17.34656 13.00096c3.55584 2.10176 7.33312 3.79648 11.1936 5.18784 c9.44512 3.42528 19.52832 5.0496 29.5424 5.39392l-16.75008 -142.3968h-27.90336c1.41696 32.54016 2.91712 63.35872 3.792 81.04896 c-12.2784 -16.95872 -20.09728 -44.54976 -22.95808 -81.04896H245.33376zM372.05568 108.39872l-13.37536 142.18624c9.18144 -0.63296 18.3616 -2.3424 27.07008 -5.40736 c9.38944 -3.29088 17.48608 -8.52224 25.27744 -14.64576c28.41728 -22.2688 43.93152 -63.47904 46.51456 -122.13312h-37.792 c-1.80544 36.464 -9.2768 63.96288 -21.86112 81.0208c1.59744 -19.81376 4.112 -52.62848 5.65312 -81.0208H372.05568z"/><glyph unicode="&#xE001;" glyph-name="call37" horiz-adv-x="512" d="M215.79136 166.8416c0 -14.51904 -11.7696 -26.28864 -26.28864 -26.28864c-14.5184 0 -26.288 11.7696 -26.288 26.28864 c0 14.51904 11.7696 26.28864 26.288 26.28864C204.02176 193.1296 215.79136 181.36064 215.79136 166.8416zM322.49792 193.1296 c-14.51904 0 -26.28864 -11.7696 -26.28864 -26.28864c0 -14.51904 11.77024 -26.28864 26.28864 -26.28864c14.5184 0 26.28864 11.7696 26.28864 26.28864 C348.78592 181.36064 337.01632 193.1296 322.49792 193.1296zM512 181.49504v-49.95968c0 -25.08352 -20.33344 -45.4176 -45.4176 -45.4176H433.6256 C400.96896 -4.55744 317.5776 -59.32544 256 -59.32544s-144.96896 54.768 -177.6256 145.4432H45.4176C20.33344 86.11776 0 106.45184 0 131.53536v49.95968 c0 17.2608 9.63008 32.27072 23.80992 39.9552c0.47616 70.9312 21.14944 126.32832 61.53472 164.62592C125.40224 424.06272 182.8192 443.32544 256 443.32544 s130.5984 -19.26272 170.656 -57.24864c40.38464 -38.2976 61.05728 -93.69472 61.53472 -164.62592C502.36992 213.76576 512 198.75584 512 181.49504zM415.87328 166.67456c0 11.68704 -0.59776 22.66688 -1.4816 33.30688c-20.1568 18.4416 -56.7488 32.43456 -102.92992 37.63392 c6.06336 -6.81856 11.30112 -15.78752 14.47744 -27.5936c-28.28608 22.2848 -83.8112 16.98048 -125.80928 66.84864c-2.40768 2.78528 -4.4896 5.4464 -6.29056 7.8784 c-0.02112 0.0288 -0.04416 0.05184 -0.06464 0.08064l0.00512 -0.00192c-7.47136 10.10432 -10.0192 16.11456 -10.16192 9.46176 c-1.232 -57.3184 -41.85856 -102.00256 -86.97152 -108.3072c-0.28544 -6.30336 -0.51904 -12.66752 -0.51904 -19.3088c0 -24.2272 3.95648 -46.3072 10.68288 -66.20608 c25.34016 -30.56576 67.18848 -39.19744 104.22912 -41.48672c6.87552 10.94016 22.304 18.57728 40.27072 18.57728c24.35904 0 44.1056 -14.01728 44.1056 -31.30816 s-19.74656 -31.30816 -44.1056 -31.30816c-18.73728 0 -34.70464 8.30784 -41.09568 20.00576c-25.88736 1.50464 -54.34496 5.91744 -79.70816 17.8944 C166.17536 0.26879999999997 221.4688 -27.5328 256 -27.5328C310.26176 -27.5328 415.87328 41.01504 415.87328 166.67456zM460.84672 226.91264 C457.95584 350.68864 387.3056 416.07424 256 416.07424S54.0448 350.68864 51.15392 226.91264h17.47392c6.38912 41.7184 19.89312 76.0288 40.39488 102.4096 C141.69536 371.36 191.14496 392.67584 256 392.67584s114.30464 -21.31584 146.97792 -63.3536c20.50112 -26.3808 34.00576 -60.6912 40.39488 -102.4096H460.84672z"/><glyph unicode="&#xE002;" glyph-name="chief" horiz-adv-x="512" d="M351.399936 194.077696L151.863296 194.077696L151.863296 162.270208L171.262976 162.270208L171.262976 7.944192L315.752448 7.944192L315.752448 162.270208L351.399936 162.270208ZM365.568 298.820608C365.568 320.444964608 382.531035392 337.408 404.041728 337.408C424.380964608 337.408 441.344 320.444964608 441.344 298.820608C441.344 278.595035392 424.380964608 261.632 404.041728 261.632C382.531035392 261.632 365.568 278.595035392 365.568 298.820608ZM479.839232 149.459968c0 10.796032 -18.260992 89.949184 -18.260992 89.949184c-3.306496 15.42656 -18.952192 22.833152 -32.231424 23.221248l-0.126976 -0.007168 c0 0 -4.683776 -0.023552 -8.71424 -0.80384c-4.215808 -0.79872 -7.918592 -2.837504 -7.918592 -2.837504c-6.97344 -3.3792 -13.641728 -9.357312 -17.379328 -16.78848 c-25.790464 -2.690048 -48.467968 2.900992 -63.099904 15.930368c-5.23776 4.644864 -12.786688 4.901888 -18.320384 1.119232l-55.48032 45.791232 c-1.728512 1.429504 -4.312064 1.190912 -5.74464 -0.549888c-1.436672 -1.732608 -1.190912 -4.313088 0.549888 -5.74464l55.49056 -45.806592c-2.49856 -5.74464 -1.243136 -12.657664 3.689472 -17.048576 c17.757184 -15.818752 42.707968 -24.183808 70.762496 -24.183808c4.068352 0 8.199168 0.193536 12.376064 0.553984l12.47232 -56.829952 c-37.571584 -9.218048 -43.854848 -19.776512 -46.222336 -24.143872c-7.919616 -14.656512 -18.927616 -75.681792 -23.297024 -101.241856c-1.874944 -11.045888 5.564416 -21.548032 16.618496 -23.440384 c1.14688 -0.203776 2.302976 -0.300032 3.441664 -0.283648c9.70752 0 18.29376 6.987776 20.00384 16.88576c5.824512 34.121728 18.167808 87.791616 18.167808 87.791616 C424.418304 108.869632 479.839232 113.727488 479.839232 149.459968zM510.191616 199.098368v32.045056h-16.3328v-32.045056c0 -52.16768 -6.344704 -92.084224 -86.309888 -92.084224v-16.323584c12.524544 0 23.478272 0.9984 33.165312 2.82624 v-49.101824H422.68672c-18.56512 0 -33.662976 -15.089664 -33.662976 -33.672192h16.3328c0 9.576448 7.770112 17.353728 17.344512 17.353728h52.3776 c9.567232 0 17.338368 -7.780352 17.338368 -17.353728h16.3328c0 18.581504 -15.09888 33.672192 -33.662976 33.672192h-18.026496v53.352448 C505.245696 114.42176 510.191616 157.83424 510.191616 199.098368zM82.543616 297.208832c22.54848 0 40.828928 18.279424 40.828928 40.832c0 22.549504 -18.279424 40.833024 -40.828928 40.833024 c-22.5536 0 -40.833024 -18.28352 -40.832 -40.833024C41.711616 315.488256 59.99104 297.208832 82.543616 297.208832zM173.791232 246.975488c-3.509248 8.024064 -12.8512 11.687936 -20.883456 8.154112c-25.532416 -11.201536 -43.764736 -5.665792 -59.021312 17.737728 c-6.325248 11.46368 -11.549696 18.473984 -20.436992 22.79424c0 0 -3.940352 2.164736 -8.42752 3.022848c-4.296704 0.815104 -9.285632 0.842752 -9.285632 0.842752l-0.114688 0.008192 c-14.14144 -0.407552 -30.790656 -8.293376 -34.308096 -24.70912L2.440192 186.687488c-2.520064 -11.75552 2.753536 -22.263808 11.256832 -29.530112l-0.082944 -130.41152 c-0.008192 -11.933696 9.665536 -21.619712 21.603328 -21.619712H35.2256c11.936768 0 21.610496 9.664512 21.618688 21.6064l0.082944 123.083776 c8.930304 3.554304 16.479232 10.42432 18.774016 21.170176l13.052928 60.936192c12.146688 -9.263104 25.89184 -14.058496 40.848384 -14.058496 c11.395072 0 23.467008 2.721792 36.036608 8.233984C173.661184 229.609472 177.309696 238.96064 173.791232 246.975488z"/><glyph unicode="&#xE003;" glyph-name="chronometer10" horiz-adv-x="512" d="M488.34688 133.61152c-10.30336 -103.74016 -94.36032 -187.12 -198.17408 -196.6592C167.45408 -74.3232 62.81024 15.90336 50.672 133.1776H29.04384 c-13.1488 0 -21.36704 14.23488 -14.79104 25.62176l48.37056 83.76192c6.57472 11.3856 23.00928 11.38496 29.58336 -0.00128l48.36096 -83.76192 c6.57408 -11.38688 -1.64352 -25.62048 -14.79168 -25.62048h-18.82816c12.23168 -87.5584 93.74656 -153.2256 187.20768 -139.52768 C363.31456 3.7856 419.41248 58.35008 431.168 127.25312c17.59488 103.12896 -61.76512 192.88512 -161.69088 192.88512 c-32.40448 0 -63.68064 -9.4016 -90.54784 -27.20576c-12.46848 -8.2624 -29.75296 -6.62784 -38.90048 5.2064c-9.95968 12.88512 -6.84992 31.27936 6.43136 40.24832 c28.82496 19.47328 61.50272 31.64224 95.73888 35.87904V406.016h-22.40768c-7.70944 0 -13.95968 6.2496 -13.95968 13.95968V434.04032 C205.83168 441.7504 212.08128 448 219.79136 448h103.91424c7.70944 0 13.95968 -6.2496 13.95968 -13.95968v-14.06528c0 -7.70944 -6.2496 -13.95968 -13.95968 -13.95968 h-24.68096v-32.08128C413.51552 358.48704 500.37248 254.69312 488.34688 133.61152zM495.5776 344.8768l-42.09152 38.9056 c-5.66144 5.23264 -14.49344 4.88576 -19.72672 -0.77568l-11.13472 -12.04672c-5.23328 -5.66144 -4.88576 -14.49344 0.77568 -19.72672l42.09152 -38.9056 c5.66144 -5.23264 14.49344 -4.88576 19.72672 0.77568l11.13472 12.04672C501.58656 330.81152 501.23904 339.64352 495.5776 344.8768zM268.81536 291.43936v-136.52864 h135.16608C403.98208 238.05568 340.8992 291.43936 268.81536 291.43936z"/><glyph unicode="&#xE004;" glyph-name="commercial15" horiz-adv-x="512" d="M501.36896 350.1568L445.39712 420.3776c-5.28704 6.6336 -13.30752 10.49728 -21.79072 10.49728H134.3168c-8.48192 0 -16.5024 -3.86368 -21.79008 -10.49664 L56.55552 350.1568c-5.84704 -7.33568 -10.63168 -21.01376 -10.63168 -31.33952v-51.43616c4.44608 6.99392 10.944 12.24384 18.736 14.92928 c0.4352 5.87776 2.2176 11.57888 5.26592 16.76992c5.27936 8.99392 13.74912 15.3888 23.84512 18.01472c3.6192 0.94592 6.93248 1.37408 10.24576 1.37408 c13.34784 0 25.44384 -6.78976 32.52608 -17.45664c2.1088 0.36736 4.23808 0.55808 6.3744 0.55808c6.55424 0 12.74752 -1.8016 18.14272 -4.90752l31.00288 8.064 c3.8848 1.01376 7.87776 1.52384 11.8784 1.52384c21.4432 0 40.18624 -14.50432 45.58784 -35.27424l60.75904 -233.52448c3.17056 -12.18432 1.4016 -24.87232 -4.9664 -35.72992 c-6.3744 -10.8576 -16.59968 -18.5792 -28.784 -21.74976l-27.11616 -7.05344h227.7472c19.23712 0 34.832 15.59488 34.832 34.832L512 319.76192 C512 329.14304 507.216 342.82112 501.36896 350.1568zM74.84672 350.75136l18.53568 23.25504h126.46528l12.47936 20.51904H109.7376l13.68448 17.16864 c2.65856 3.33568 6.62976 5.24864 10.89536 5.24864h289.2896c4.2656 0 8.2368 -1.91296 10.89536 -5.24864l13.68448 -17.16864H323.41248l6.9664 -20.51904h134.16256 l18.53568 -23.25504H74.84672zM80.50048 264.9504l-7.81824 -2.03392c-8.32704 -2.1664 -13.3216 -10.67328 -11.1552 -19.00032l0.07936 -0.30464 c2.16704 -8.32768 10.67328 -13.3216 19.00096 -11.1552l66.30272 17.24864c8.32768 2.1664 13.3216 10.67264 11.1552 19.00096l-0.07936 0.30464 c-2.1664 8.32704 -10.67328 13.3216 -19.00032 11.1552l-7.81824 -2.03392c-4.17728 -1.08672 -8.44544 1.41888 -9.53216 5.59616l-0.06656 0.25408 c-2.52352 9.70112 -12.43328 15.51936 -22.13504 12.99584l-0.40576 -0.1056c-9.70112 -2.52416 -15.51936 -12.43392 -12.99584 -22.13504l0.06656 -0.25408 C87.184 270.30528 84.6784 266.03712 80.50048 264.9504zM101.87136 286.77056c4.20544 1.09376 8.5024 -1.42848 9.59616 -5.63392 c1.09376 -4.20608 -1.42848 -8.5024 -5.63456 -9.59616c-4.20544 -1.09376 -8.50176 1.42848 -9.59616 5.63392C95.14304 281.38048 97.66592 285.6768 101.87136 286.77056zM199.58464 46.59456c0.7296 -2.80384 -0.95232 -5.66848 -3.75552 -6.39744l-96.45888 -25.09312c-2.80384 -0.7296 -5.66848 0.95232 -6.39744 3.75616l-1.32096 5.07648 c-0.7296 2.80448 0.95232 5.66848 3.75616 6.39744l96.45824 25.09312c2.80448 0.7296 5.66848 -0.95232 6.39744 -3.75552L199.58464 46.59456zM211.34912 147.22048 l1.32096 -5.07648c0.72896 -2.80384 -0.95232 -5.66848 -3.75616 -6.39744l-131.99552 -34.33856c-2.80384 -0.7296 -5.66784 0.95232 -6.39744 3.75552l-1.32096 5.07712 c-0.72896 2.80448 0.95232 5.66848 3.75616 6.39744l131.99552 34.33856C207.75552 151.70624 210.61952 150.02496 211.34912 147.22048zM197.0272 181.43744 l-131.99552 -34.33856c-2.80384 -0.72896 -5.66784 0.95232 -6.39744 3.75616l-1.32096 5.07712c-0.72896 2.80384 0.95232 5.66784 3.75616 6.39744l131.99552 34.33792 c2.80448 0.7296 5.66784 -0.95232 6.39744 -3.75552l1.32096 -5.07712C201.51296 185.03104 199.83168 182.16704 197.0272 181.43744zM194.096 88.52928 l-106.61184 -27.73504c-2.80384 -0.72896 -5.66848 0.95232 -6.39744 3.75616l-1.32096 5.07712c-0.7296 2.80384 0.95232 5.66784 3.75616 6.39744l106.61184 27.7344 c2.80384 0.7296 5.66784 -0.95232 6.39744 -3.75616l1.32096 -5.07712C198.58112 92.12288 196.89984 89.25824 194.096 88.52928zM290.0576 32.18816 L229.3056 265.71904c-3.64672 14.01856 -17.96864 22.42688 -31.9872 18.78016l-30.95808 -8.05376c0.73152 -1.51168 1.33952 -3.10848 1.77856 -4.7936 c3.69856 -14.21888 -4.6752 -28.48192 -18.58944 -32.10176l-65.328 -16.99456c-13.33568 -3.46944 -27.69408 3.39712 -32.17088 16.42944 c-0.84288 2.4544 -1.2992 4.9216 -1.42976 7.35168l-30.98944 -8.06208C5.6128 234.62784 -2.79552 220.30656 0.8512 206.28736l60.75264 -233.53088 c3.64736 -14.0192 17.96864 -22.42752 31.9872 -18.78016l177.6864 46.22464C285.29664 3.84832 293.70432 18.16896 290.0576 32.18816zM86.98752 -20.63936 L34.15936 182.43008l177.6864 46.22464l52.82816 -203.07008L86.98752 -20.63936z"/><glyph unicode="&#xE005;" glyph-name="delivery18" horiz-adv-x="512" d="M151.67424 124.85056c-24.90496 0 -45.10464 -20.19904 -45.10464 -45.03168c0 -24.90496 20.19968 -45.10464 45.10464 -45.10464 c24.83264 0 45.03168 20.19968 45.03168 45.10464C196.70592 104.65152 176.50688 124.85056 151.67424 124.85056zM151.67424 57.23072 c-12.45248 0 -22.58816 10.13568 -22.58816 22.58816c0 12.37952 10.13568 22.51584 22.58816 22.51584c12.37952 0 22.51584 -10.13568 22.51584 -22.51584 C174.19008 67.3664 164.0544 57.23072 151.67424 57.23072zM112.84736 124.832H11.90336c-3.99872 0 -7.23968 -3.24096 -7.23968 -7.23968v-21.96544 c0 -3.99872 3.24096 -7.23968 7.23968 -7.23968h80.91136C94.92736 102.88128 102.2432 115.68512 112.84736 124.832zM387.33056 124.85056 c-24.83264 0 -45.03168 -20.19904 -45.03168 -45.03168c0 -24.90496 20.19904 -45.10464 45.03168 -45.10464c24.90496 0 45.03168 20.19968 45.03168 45.10464 C432.36224 104.65152 412.23552 124.85056 387.33056 124.85056zM387.33056 57.23072c-12.45248 0 -22.51584 10.13568 -22.51584 22.58816 c0 12.37952 10.06336 22.51584 22.51584 22.51584c12.45248 0 22.51584 -10.13568 22.51584 -22.51584C409.8464 67.3664 399.78304 57.23072 387.33056 57.23072zM504.76032 124.85056h-17.59296V223.24032c0 11.51104 -3.4752 22.80512 -9.91872 32.3616L433.1584 320.90496c-10.71552 15.92768 -28.7424 25.48416 -48 25.48416 H316.81472c-7.96416 0 -14.47936 -6.44288 -14.47936 -14.47936v-207.05856H190.48c10.57024 -9.19424 17.88288 -21.93664 19.98208 -36.48832h118.08128 c4.12672 28.74176 28.88704 50.96832 58.7872 50.96832s54.66048 -22.22656 58.85952 -50.96832h58.57024c4.05504 0 7.23968 3.25824 7.23968 7.23968v22.00896 C512 121.59296 508.81472 124.85056 504.76032 124.85056zM432.65152 242.57024H342.44352c-3.98208 0 -7.23968 3.18528 -7.23968 7.23968v50.02688 c0 3.98208 3.25824 7.23968 7.23968 7.23968h54.9504c2.38912 0 4.6336 -1.1584 5.93664 -3.04064l35.25824 -50.0992 C441.99104 249.1584 438.51584 242.57024 432.65152 242.57024zM267.87328 139.33056H14.47936C6.48256 139.33056 0 145.81312 0 153.80992v65.1584 c0 7.9968 6.48256 14.47936 14.47936 14.47936h253.39392c7.9968 0 14.47936 -6.48256 14.47936 -14.47936v-65.1584 C282.35328 145.81312 275.87008 139.33056 267.87328 139.33056zM115.83744 255.16736H14.47936C6.48256 255.16736 0 261.65056 0 269.64736v65.1584 c0 7.9968 6.48256 14.47936 14.47936 14.47936h101.35744c7.9968 0 14.47936 -6.48256 14.47936 -14.47936v-65.1584 C130.3168 261.65056 123.83424 255.16736 115.83744 255.16736zM267.87328 255.16736H166.51584c-7.9968 0 -14.47936 6.48256 -14.47936 14.47936v65.1584 c0 7.9968 6.48256 14.47936 14.47936 14.47936h101.35744c7.9968 0 14.47936 -6.48256 14.47936 -14.47936v-65.1584 C282.35328 261.65056 275.87008 255.16736 267.87328 255.16736z"/><glyph unicode="&#xE006;" glyph-name="frontal19" horiz-adv-x="512" d="M452.87104 29.51616V108.46848c0 16.96384 -13.75232 30.71616 -30.71616 30.71616h-8.0288V427.42144c0 2.57856 -1.29408 4.98432 -3.44512 6.4064 L391.184 446.71424c-5.10528 3.37408 -11.91296 -0.28672 -11.91296 -6.4064v-92.57152l-5.80992 15.67296c-7.8144 21.07904 -27.92064 35.0688 -50.40128 35.0688H188.8224 c-22.61312 0 -42.80832 -14.15232 -50.52544 -35.408l-5.56736 -15.33376V440.30784c0 6.11904 -6.80768 9.78048 -11.91296 6.4064L101.3184 433.82784 c-2.15104 -1.42144 -3.44512 -3.82784 -3.44512 -6.4064v-288.2368h-8.0288c-16.96384 0 -30.71616 -13.75232 -30.71616 -30.71616v-78.95232H46.04224 c-4.24128 0 -7.67872 -3.43808 -7.67872 -7.67872v-42.45184c0 -4.24128 3.43808 -7.67872 7.67872 -7.67872h33.12768v-20.34816 c0 -8.48192 6.87616 -15.35808 15.35808 -15.35808h40.69632c8.48192 0 15.35808 6.87616 15.35808 15.35808v20.34816h210.8352v-20.34816 c0 -8.48192 6.87616 -15.35808 15.35808 -15.35808H417.472c8.48192 0 15.35808 6.87616 15.35808 15.35808v20.34816h33.12768 c4.24128 0 7.67872 3.43808 7.67872 7.67872V21.8368c0 4.24128 -3.43808 7.67872 -7.67872 7.67872H452.87104zM142.90304 304.96256h226.19328v-75.66272H142.90304 V304.96256zM137.64352 51.00608h-26.23296c-8.01536 0 -14.51328 6.49792 -14.51328 14.51328v0.36608c0 8.01536 6.49792 14.51328 14.51328 14.51328h26.23296 c8.01536 0 14.51328 -6.49792 14.51328 -14.51328v-0.36608C152.1568 57.504 145.65888 51.00608 137.64352 51.00608zM308.20224 46.7264H203.79776 c-8.48192 0 -15.35808 6.87616 -15.35808 15.35808V159.39264c0 8.48192 6.87616 15.35808 15.35808 15.35808h104.40448 c8.48192 0 15.35808 -6.87616 15.35808 -15.35808v-97.30816C323.56032 53.60256 316.68416 46.7264 308.20224 46.7264zM400.58944 51.00608h-26.23296 c-8.01536 0 -14.51328 6.49792 -14.51328 14.51328v0.36608c0 8.01536 6.49792 14.51328 14.51328 14.51328h26.23296c8.01536 0 14.51328 -6.49792 14.51328 -14.51328 v-0.36608C415.10272 57.504 408.6048 51.00608 400.58944 51.00608zM305.86752 118.54592h-99.9808c-4.1984 0 -7.60192 3.40352 -7.60192 7.60256v0.1536 c0 4.1984 3.40352 7.60192 7.60192 7.60192h99.9808c4.1984 0 7.60192 -3.40352 7.60192 -7.60192v-0.1536 C313.46944 121.94944 310.06592 118.54592 305.86752 118.54592zM305.86752 149.26208h-99.9808c-4.1984 0 -7.60192 3.40352 -7.60192 7.60192v0.1536 c0 4.1984 3.40352 7.60192 7.60192 7.60192h99.9808c4.1984 0 7.60192 -3.40352 7.60192 -7.60192v-0.1536C313.46944 152.6656 310.06592 149.26208 305.86752 149.26208 zM305.86752 57.1136h-99.9808c-4.1984 0 -7.60192 3.40352 -7.60192 7.60192v0.1536c0 4.1984 3.40352 7.60192 7.60192 7.60192h99.9808 c4.1984 0 7.60192 -3.40352 7.60192 -7.60192v-0.1536C313.46944 60.51712 310.06592 57.1136 305.86752 57.1136zM305.86752 87.82976h-99.9808 c-4.1984 0 -7.60192 3.40352 -7.60192 7.60192v0.1536c0 4.1984 3.40352 7.60192 7.60192 7.60192h99.9808c4.1984 0 7.60192 -3.40352 7.60192 -7.60192v-0.1536 C313.46944 91.23328 310.06592 87.82976 305.86752 87.82976z"/><glyph unicode="&#xE007;" glyph-name="international14" horiz-adv-x="512" d="M261.69664 442.30336c-93.63008 0 -175.36704 -51.70752 -218.28992 -128.03584c5.2256 1.65568 10.77568 2.65856 16.71936 2.65856 c16.76224 0 32.92288 -7.92448 48.19072 -23.35872c9.53088 -3.23904 19.56096 -6.224 30.17408 -8.82368c-1.74912 -8.21376 -3.18272 -16.7296 -4.46528 -25.37344 c20.6656 -36.25472 11.58784 -59.4016 -5.48928 -79.35936h0.68416c0.29376 -11.91744 1.13472 -23.50592 2.27392 -34.87616 c6.50048 -8.39296 15.86496 -19.20832 29.19872 -32.83456c-4.15616 21.32288 -6.82944 44.03648 -7.47968 67.71008h96.49344v-69.4592 c-27.6672 -0.55616 -54.34176 -3.11936 -79.81376 -7.46304c8.61632 -8.45952 16.10944 -15.3344 22.58816 -20.9056c18.53952 2.3584 37.76192 3.80288 57.2256 4.20544 v-7.31712c8.2528 5.12896 17.80288 8.67904 29.5872 8.67904c5.23264 0 10.53504 -0.78208 15.97504 -2.22528c20.4544 -1.19936 40.4576 -3.49056 59.35744 -6.89728 c-2.448 -8.22784 -5.1744 -16.08128 -8.10368 -23.59808c7.51168 -6.59264 13.51872 -13.28 18.04736 -20.10624c5.30176 12.02688 10.01344 25.00032 14.01024 38.84672 c20.05504 -4.85888 38.144 -10.97856 53.50144 -18.06144c-15.92064 -19.8624 -35.24928 -36.85696 -57.05984 -50.17344c0.03392 -0.49344 0.1376 -0.97664 0.15808 -1.472 c0.70272 -16.85504 -6.36352 -30.74944 -15.4368 -42.34432C449.16864 -0.060160000000033 512 88.76288 512 192C512 330.01856 399.7152 442.30336 261.69664 442.30336zM144.21632 308.02176c-20.4608 5.0048 -38.81088 11.28832 -54.2688 18.53632c25.05088 31.90336 58.74048 56.7072 97.5584 70.77696 C169.30496 374.89024 154.41664 344.2432 144.21632 308.02176zM249.70752 203.98848H153.21408c0.73216 26.66112 3.89888 52.23104 9.02208 75.81248 c27.56096 -5.2 56.85696 -8.12992 87.472 -8.74048V203.98848zM249.70752 295.22944c-28.2208 0.58176 -55.99872 3.21024 -81.57824 7.88352 c15.3184 52.85056 40.9792 92.42112 70.80448 106.03136c3.56672 0.3712 7.15904 0.6496 10.77376 0.84608V295.22944zM447.3664 306.69952 c18.70336 -30.16576 30.2784 -65.184 32.32 -102.71104H394.1792c-0.70464 28.58496 -3.93984 55.72608 -9.27168 80.75584 C408.51264 290.52672 429.65376 297.99232 447.3664 306.69952zM273.68512 409.9904c3.616 -0.19648 7.2096 -0.47488 10.77696 -0.84608 c29.82912 -13.61088 55.49184 -53.18272 70.8096 -106.0352c-25.5392 -4.67328 -53.32288 -7.30368 -81.58656 -7.8816V409.9904zM360.6496 101.90976 c-27.36896 5.0752 -56.9248 8.01344 -86.96448 8.63616v69.4656h96.50176C369.4304 152.48192 366.07104 126.12416 360.6496 101.90976zM273.68512 203.98848 V271.06688c30.41024 0.62336 60.14336 3.5968 87.47904 8.73856c5.1232 -23.58272 8.28992 -49.15456 9.02272 -75.81696H273.68512zM335.88992 397.3344 c38.81536 -14.06976 72.50304 -38.87232 97.552 -70.77312c-15.45792 -7.24608 -33.8016 -13.52896 -54.26112 -18.53696 C368.98048 344.24384 354.09152 374.89024 335.88992 397.3344zM446.21312 75.50336c-17.63008 8.55104 -38.53952 15.8688 -61.77216 21.5168 c5.61984 25.64096 9.01248 53.5584 9.7376 82.99136H479.6864C477.60384 141.7312 465.58336 106.07296 446.21312 75.50336zM326.62784 40.53952 c-50.21824 40.35904 -64.26112 20.51904 -87.0464 -2.26176c-15.9072 -15.9136 -56.1632 17.31648 -90.92224 52.07808 c-34.76096 34.76544 -67.98528 75.01504 -52.07936 90.9248c22.7872 22.78336 42.6208 36.83392 2.25088 87.03744 c-40.35648 50.22336 -67.25824 11.66528 -89.3312 -10.40832c-25.48224 -25.47328 -1.34272 -120.4032 92.47872 -214.23936 c93.83424 -93.82336 188.76352 -117.94688 214.23104 -92.4832C338.27776 -26.73792 376.84672 0.16192000000003 326.62784 40.53952z"/><glyph unicode="&#xE008;" glyph-name="man337" horiz-adv-x="512" d="M320 384.448C320 426.509668 341.490332 448 377.264 448C394.509668 448 416 426.509668 416 384.448C416 373.490332 394.509668 352 377.264 352C341.490332 352 320 373.490332 320 384.448ZM249.68 56.272v15.328c0 12.4 6.048 24.384 15.968 32.032v52.416H208.32c-22.16 0 -39.968 17.504 -39.968 39.632 c0 3.616 1.632 6.608 1.632 9.952v14.192h6.672c7.36 10.64 18.784 15.952 31.664 15.952h52.544c0.576 2.656 2.128 3.536 2.128 5.648 V383.664c0 11.872 -10.96 22.208 -22.816 22.208H63.088c-11.872 0 -20.688 -10.336 -20.688 -22.208v-142.256c0 -11.872 8.816 -21.6 20.688 -21.6h72.336v-18.592 H111.104c-10.672 0 -19.328 -7.968 -19.328 -21.264H9.088c-5.504 0 -9.216 -3.088 -9.216 -8.624v-22.496c0 -5.488 3.696 -8.736 9.216 -8.736h27.984 v-201.984h233.872v90.976C270.96 29.088 249.68 33.584 249.68 56.272zM94.336 251.712c-11.856 0 -22.704 8.464 -22.704 20.304V353.024 c0 11.872 10.848 20.944 22.704 20.944h115.168c11.872 0 21.6 -9.072 21.6 -20.944v-81.008c0 -11.84 -9.712 -20.304 -21.6 -20.304H94.336zM418.64 312.032H336.48c-50.368 0 -53.552 -50.416 -53.552 -50.416s-6.72 -33.984 -12.32 -37.888c-1.712 -1.2 -3.728 -2.064 -6.08 -2.064h-56.256 c-13.312 0 -24.096 -10.592 -24.096 -23.92c0 -13.312 10.784 -23.92 24.096 -23.92h56.256c8.736 0 16.448 -0.016 17.488 0.224l-0.512 -58.704h31.952 v129.888c0 26.176 16.848 56.16 43.296 56.16h97.968C444.976 309.376 432.352 312.032 418.64 312.032zM480.656 47.088c17.728 0 32.144 14.384 32.144 32.144V244.176c0 19.856 -16.816 36.784 -36.656 36.784h-111.328 c-19.856 0 -35.376 -16.928 -35.376 -36.784v-146.608h-35.888c-13.792 0 -25.248 -10.608 -25.248 -24.4v-9.056c0 -9.392 7.616 -16.992 17.008 -16.992h76.032 v-21.264h-12.176c0 0 -30.352 -0.72 -30.352 -28.944v-40.48c0 -9.136 6.816 -16.576 16 -16.576c9.168 0 16.336 7.504 16.336 16.656l-0.256 37.44h55.616 v-37.52c0 -9.136 8.08 -16.576 17.264 -16.576c9.2 0 17.28 7.44 17.28 16.576v40.48c0 30.672 -32.576 28.944 -32.576 28.944H395.84v21.248H480.656 z"/><glyph unicode="&#xE009;" glyph-name="peace" horiz-adv-x="790" d="M196.96761591446 357.62228847538c0 -49.952503341215 -40.530482163051 -90.377711524622 -90.272437544978 -90.377711524622c-50.057777320859 0 -90.482985504266 40.425208183407 -90.482985504266 90.377711524622 C16.264829855043 407.46951783695 56.637401048628 448 106.69517836949 448C156.48977074124 448 196.96761591446 407.46951783695 196.96761591446 357.62228847538zM592.5872314177 357.62228847538c0 -49.952503341215 40.530482163051 -90.377711524622 90.272437544978 -90.377711524622 c50.057777320859 0 90.588259483911 40.425208183407 90.588259483911 90.377711524622C773.39529145677 407.46951783695 732.91744628354 448 682.85966896268 448C633.06507659093 448 592.5872314177 407.46951783695 592.5872314177 357.62228847538zM344.82492032487 47.064048524725 c-2.0528426030636 19.212501285083 5.3689729618587 37.003803844968 17.896576539529 49.952503341215C286.23995065282 111.59699804667 254.86830471882 148.91662383057 227.60234399095 182.65693430657C214.33782255577 199.18494911072 201.70494499846 214.92340906754 184.96638223502 226.02981392002 c-0.52636989822145 0.31582193893287 -1.105376786265 0.31582193893287 -1.5264727048422 0.73691785751002C169.12264829855 238.55741749769 151.01552379973 246.08450704225 131.06610465714 246.08450704225H82.21897810219C37.003803844968 246.08450704225 0 209.18597717693 0 163.97080291971v-227.91816592989h213.33771974915V83.330934512183 c31.16109797471 -27.265960727871 75.165621466022 -53.163359720366 142.80415338748 -64.480312532127C350.45707823584 27.114629382132 346.03557109078 36.37873959083 344.82492032487 47.064048524725zM707.3885062198 246.08450704225h-48.952400534594c-19.844145162948 0 -38.056543641411 -7.5270895445667 -52.215893903567 -19.317775264727 c-0.52636989822145 -0.42109591857716 -1.105376786265 -0.42109591857716 -1.5264727048422 -0.73691785751002c-16.738562763442 -11.106404852472 -29.424077310579 -26.739590829649 -42.741235735581 -43.372879613447C532.00205613241 145.6531304616 498.10383468695 103.38562763442 403.19934203763 92.910866659813 C381.72345019019 90.436928138172 366.3008121723 71.119152873445 368.6694767143 49.64326102601C370.82759329701 29.588567903773 387.77670401974 14.79757376375 407.51557520304 14.79757376375c1.4211987251979 0 2.8950344402179 0.10527397964429 4.4215071450601 0.21054795928858 c80.376683458415 8.9482882697646 130.17127583016 37.530173743189 164.38531921456 67.849079880744v-146.80456461396H789.55484733217v227.91816592989C789.55484733217 209.18597717693 752.5510434872 246.08450704225 707.3885062198 246.08450704225z"/><glyph unicode="&#xE00A;" glyph-name="person21" horiz-adv-x="512" d="M248.259584 248.615936L7.860224 248.615936L7.860224 221.800448L29.289472 221.800448L29.289472 -21.608448L206.454784 -21.608448L206.454784 221.800448L248.259584 221.800448ZM402.120704 120.9856c20.978688 0.169984 44.88704 9.430016 48.3072 33.152l13.304832 108.53376c2.246656 20.215808 -12.025856 40.129536 -41.101312 44.174336 c-5.480448 0.72704 -10.8544 -0.249856 -10.8544 -0.249856c-7.325696 -0.954368 -15.024128 -3.775488 -21.62688 -8.189952c-0.062464 -0.047104 -2.746368 -1.88928 -3.85024 -2.813952l-0.275456 -0.203776 c-30.811136 -22.762496 -44.827648 -33.014784 -73.04192 -17.079296l16.116736 12.387328l-57.348096 70.627328l-35.369984 -34.40128l32.008192 -35.298304 c-0.956416 -0.8192 -1.839104 -1.743872 -2.649088 -2.783232c-6.519808 -8.377344 -5.016576 -20.438016 3.357696 -26.953728c27.577344 -21.477376 49.82784 -29.45536 69.161984 -29.45536 c11.392 0 21.721088 2.871296 31.55456 7.300096l-7.694336 -69.18656c-40.287232 -1.447936 -65.66912 -9.747456 -75.615232 -24.830976 c-13.459456 -20.48 -37.751808 -111.567872 -44.128256 -136.906752c-3.295232 -13.084672 4.656128 -26.368 17.7408 -29.663232c2.000896 -0.499712 4.001792 -0.753664 5.981184 -0.753664 c10.944512 0 20.90496 7.40352 23.691264 18.487296c11.236352 44.632064 37.076992 124.015616 37.076992 124.015616L402.120704 120.9856zM416.768 408.576c27.323392 0 49.475584 -22.151168 49.475584 -49.477632c0 -27.328512 -22.153216 -49.481728 -49.475584 -49.481728 c-27.33056 0 -49.482752 22.155264 -49.482752 49.481728C367.285248 386.424832 389.43744 408.576 416.768 408.576zM495.056896 175.9232l9.08288 93.595648h-28.954624l-9.08288 -93.595648c-2.139136 -68.4032 -44.010496 -65.383424 -62.4896 -66.28352l-50.77504 0.054272v-28.940288h48.9984 c0.41472 -0.021504 0.968704 -0.06656 1.645568 -0.084992v-70.293504H386.23232c-19.279872 0 -34.968576 -15.678464 -34.968576 -34.951168h19.289088 c0 8.635392 7.021568 15.670272 15.670272 15.670272h63.397888c8.643584 0 15.680512 -7.031808 15.680512 -15.670272h19.289088c0 19.257344 -15.680512 34.951168 -34.975744 34.951168 h-17.224704v73.50272C478.25408 85.98016 489.547776 135.36256 495.056896 175.9232z"/><glyph unicode="&#xE00B;" glyph-name="student49" horiz-adv-x="512" d="M484.56 159.2c0 14.096 -11.44 25.52 -25.536 25.52H54.384c-14.096 0 -25.52 -11.424 -25.52 -25.52v-16.208h31.488v-169.12 c0 -20.912 16.96 -37.856 37.84 -37.856H416c20.912 0 37.84 16.96 37.84 37.856v169.12h30.704L484.56 159.2L484.56 159.2zM353.12 253.984h22.976c16.848 0 30.56 13.856 30.56 30.704V418.032c0 13.6 -11.168 24.64 -24.8 24.64c-13.616 0 -24.8 -11.04 -24.8 -24.64v-114.464 h-21.712c-5.968 3.936 -13.088 6.288 -20.752 6.288h-115.456c-21.36 0 -38.848 -17.632 -38.848 -38.992v-60.96H353.12V253.984zM208 387.264C208 426.509668 229.490332 448 256.88 448C282.509668 448 304 426.509668 304 387.264C304 373.490332 282.509668 352 256.88 352C229.490332 352 208 373.490332 208 387.264Z"/><glyph unicode="&#xE00C;" glyph-name="tool9" horiz-adv-x="512" d="M479.75537777778 255.98862222222c-3.9196444444444 2.6168888888889 -9.216 1.5530666666667 -11.832888888889 -2.3665777777778c-4.4600888888889 -6.6901333333333 -10.592711111111 -9.5800888888889 -15.860622222222 -10.757688888889 c-0.045511111111111 9.9384888888889 -4.8583111111111 20.309333333333 -13.6704 29.121422222222c-8.4138666666667 8.4138666666667 -20.6336 10.103466666667 -29.053155555556 4.0391111111111c-6.2976 -4.5454222222222 -11.258311111111 -14.626133333333 -4.5226666666667 -28.1088 c4.1927111111111 -8.3911111111111 11.940977777778 -15.109688888889 21.373155555556 -19.0464c-1.7863111111111 -1.2629333333333 -3.8513777777778 -2.4803555555556 -6.1781333333333 -3.6408888888889c-5.1143111111111 -2.56 -10.348088888889 -4.0903111111111 -15.416888888889 -4.9777777777778 c-12.282311111111 25.088 -34.480355555556 46.546488888889 -62.993066666667 61.696C331.18435555556 257.52462222222 306.93831111111 240.35555555556 278.75555555556 240.35555555556c-36.187022222222 0 -65.803377777778 28.319288888889 -68.050488888889 63.954488888889 c-3.5384888888889 -0.34133333333333 -7.0200888888889 -0.72248888888889 -10.427733333333 -1.1662222222222C178.90417777778 316.98488888889 139.24124444444 334.02311111111 99.555555555556 331.37777777778c1.8318222222222 -16.497777777778 11.952355555556 -37.688888888889 24.996977777778 -52.980622222222 c-25.275733333333 -15.616 -41.568711111111 -36.932266666667 -49.772088888889 -61.610666666667c-9.6199111111111 -4.2211555555556 -20.007822222222 -6.9006222222222 -31.618844444444 -7.6856888888889c-8.4878222222222 -0.58026666666667 -14.8992 -7.8620444444444 -14.296177777778 -16.349866666667 C30.435555555556 170.87146666667 36.9152 133.60355555556 62.577777777778 123.73333333333c4.8071111111111 -1.8488888888889 12.475733333333 -2.9411555555556 21.6064 -3.5214222222222c10.877155555556 -17.772088888889 26.840177777778 -33.410844444444 46.546488888889 -45.806933333333 c-3.2995555555556 -16.480711111111 -7.3784888888889 -33.103644444444 -12.401777777778 -49.897244444444C116.15573333333 17.2544 121.6512 9.9555555555556 129.23448888889 9.9555555555556h47.798044444444c4.7274666666667 0 9.0396444444444 2.8956444444444 10.683733333333 7.3272888888889 c3.7603555555556 10.160355555556 6.9404444444444 20.559644444444 9.6426666666667 31.152355555556C211.54133333333 45.607822222222 226.42346666667 44.088888888889 241.77777777778 44.088888888889c17.857422222222 0 35.077688888889 2.0423111111111 51.291022222222 5.8140444444444 c-2.1105777777778 -8.4309333333333 -4.3690666666667 -16.884622222222 -6.912 -25.389511111111C283.97795555556 17.2544 289.47342222222 9.9555555555556 297.05671111111 9.9555555555556h47.798044444444c4.7274666666667 0 9.0396444444444 2.8956444444444 10.683733333333 7.3272888888889 c8.5162666666667 23.000177777778 14.153955555556 47.172266666667 17.607111111111 72.226133333333C399.38275555556 112.4352 415.28888888889 142.27342222222 415.28888888889 174.93333333333c0 10.023822222222 -1.5473777777778 19.774577777778 -4.3747555555556 29.149866666667 c5.4954666666667 1.2231111111111 11.138844444444 3.0833777777778 16.725333333333 5.8823111111111c9.2444444444444 4.6193777777778 15.064177777778 9.9441777777778 18.693688888889 15.098311111111c14.728533333333 0.30151111111111 27.898311111111 7.2533333333333 35.7888 19.086222222222 C484.73884444444 248.07537777778 483.67502222222 253.37173333333 479.75537777778 255.98862222222zM139.37777777778 214.75555555556c-7.8563555555556 0 -14.222222222222 6.3658666666667 -14.222222222222 14.222222222222c0 7.8563555555556 6.3658666666667 14.222222222222 14.222222222222 14.222222222222s14.222222222222 -6.3658666666667 14.222222222222 -14.222222222222 C153.6 221.12142222222 147.23413333333 214.75555555556 139.37777777778 214.75555555556zM420.07893333333 255.55057777778c-1.7351111111111 3.4645333333333 -1.7009777777778 5.9619555555556 -0.768 6.6332444444444c0.36977777777778 0.26737777777778 0.93297777777778 0.42666666666667 1.6213333333333 0.42666666666667 c1.4279111111111 0 3.4133333333333 -0.71111111111111 5.3873777777778 -2.6908444444444c5.1712 -5.1768888888889 8.2432 -10.990933333333 8.6300444444444 -16.122311111111C428.25955555556 246.02168888889 422.71857777778 250.27697777778 420.07893333333 255.55057777778zM278.75555555556 365.51111111111 c-31.419733333333 0 -56.888888888889 -25.469155555556 -56.888888888889 -56.888888888889c0 -31.419733333333 25.469155555556 -56.888888888889 56.888888888889 -56.888888888889s56.888888888889 25.469155555556 56.888888888889 56.888888888889C335.64444444444 340.04195555556 310.17528888889 365.51111111111 278.75555555556 365.51111111111zM296.99413333333 320.23893333333 c-2.9639111111111 -1.0012444444444 -6.2065777777778 0.59733333333333 -7.2021333333333 3.5896888888889c-0.93866666666667 2.8046222222222 -4.3918222222222 6.0757333333333 -11.036444444444 6.0757333333333c-5.3248 0 -8.4650666666667 -3.5100444444444 -8.8291555555556 -6.9859555555556 c-0.44942222222222 -4.3292444444444 3.2881777777778 -7.7482666666667 9.9953777777778 -9.1534222222222c15.314488888889 -3.2028444444444 19.791644444444 -13.562311111111 18.978133333333 -21.4528c-0.8192 -7.9416888888889 -6.6958222222222 -14.222222222222 -14.455466666667 -16.349866666667v-4.7388444444444 c0 -3.1459555555556 -2.5429333333333 -5.6888888888889 -5.6888888888889 -5.6888888888889s-5.6888888888889 2.5429333333333 -5.6888888888889 5.6888888888889v4.5112888888889c-9.0965333333333 1.8432 -14.353066666667 7.8848 -16.139377777778 13.232355555556c-1.0012444444444 2.9809777777778 0.60871111111111 6.2065777777778 3.5896888888889 7.2021333333333 c2.9866666666667 0.98986666666667 6.2065777777778 -0.60871111111111 7.2021333333333 -3.5896888888889c0.93866666666667 -2.8046222222222 4.3861333333333 -6.0757333333333 11.036444444444 -6.0757333333333c5.3248 0 8.4650666666667 3.5100444444444 8.8291555555556 6.9859555555556 c0.44942222222222 4.3235555555556 -3.2881777777778 7.7425777777778 -9.9953777777778 9.1477333333333c-15.314488888889 3.2028444444444 -19.791644444444 13.568 -18.978133333333 21.458488888889c0.8192 7.9416888888889 6.6958222222222 14.222222222222 14.455466666667 16.349866666667v4.7331555555556 c0 3.1459555555556 2.5429333333333 5.6888888888889 5.6888888888889 5.6888888888889s5.6888888888889 -2.5429333333333 5.6888888888889 -5.6888888888889v-4.5056c9.0965333333333 -1.8432 14.347377777778 -7.8791111111111 16.139377777778 -13.232355555556C301.58506666667 324.46008888889 299.96942222222 321.24017777778 296.99413333333 320.23893333333z"/><glyph unicode="&#xE00D;" glyph-name="verification5" horiz-adv-x="512" d="M259.87648 411.42848h-11.264c-6.01856 0 -10.89792 4.87936 -10.89792 10.89792v0.36608C237.71456 436.66944 226.384 448 212.4064 448h-0.58496 c-13.97696 0 -25.30752 -11.33056 -25.30752 -25.30688v-0.36608c0 -6.01856 -4.87936 -10.89792 -10.89792 -10.89792h-11.264c-11.99744 0 -21.72352 -9.72608 -21.72352 -21.72352 v-0.43904c0 -11.99808 9.72608 -21.72352 21.72352 -21.72352h95.52512c11.99744 0 21.72352 9.72608 21.72352 21.72352v0.43904 C281.6 401.7024 271.87392 411.42848 259.87648 411.42848zM212.11456 411.42848c-6.05952 0 -10.97152 4.912 -10.97152 10.97152s4.912 10.97152 10.97152 10.97152 S223.08544 428.45952 223.08544 422.4S218.17344 411.42848 212.11456 411.42848zM260.95936 -12.8H76.8c-16.15872 0 -29.25696 13.09888 -29.25696 29.25696V367.54304 C47.54304 383.70112 60.64128 396.8 69.48544 396.8h59.27616C128.26688 394.36992 128 391.85216 128 389.264c0 -20.04288 16.3072 -36.35008 36.35328 -36.35008h95.52128 c20.04672 0 36.35328 16.3072 36.35328 36.79296c0 2.4288 -0.26048 4.79616 -0.7168 7.09312h44.60288c23.47264 0 36.57152 -13.09888 36.57152 -29.25696V147.744 c-2.43136 0.15104 -4.84544 0.37056 -7.31456 0.37056c-10.11776 0 -19.88672 -1.42592 -29.25696 -3.85152V316.34304h-256v-292.57152h168.59904 C253.51424 10.9152 256.3232 -1.39072 260.95936 -12.8zM369.37152 126.17152c-52.51456 0 -95.08544 -42.57152 -95.08544 -95.08544S316.85696 -64 369.37152 -64 s95.08544 42.57152 95.08544 95.08544S421.88544 126.17152 369.37152 126.17152zM431.50336 50.62144l-58.51456 -65.82848 c-2.88192 -3.24288 -6.89664 -4.90688 -10.93952 -4.90688c-3.21088 0 -6.43904 1.05024 -9.13216 3.20704l-36.57152 29.25696 c-6.3072 5.04256 -7.33184 14.25024 -2.28224 20.55744c5.04256 6.31424 14.25344 7.33568 20.56064 2.28544l25.7248 -20.57856l49.2896 55.45024 c5.36064 6.03584 14.61056 6.5856 20.65024 1.21408C436.32832 65.9072 436.87168 56.66432 431.50336 50.62144zM303.54304 192H186.51456 c-4.03968 0 -7.31456 3.27488 -7.31456 7.31456v7.31456c0 4.03968 3.27488 7.31456 7.31456 7.31456h117.02848c4.03968 0 7.31456 -3.27488 7.31456 -7.31456 v-7.31456C310.85696 195.27488 307.58272 192 303.54304 192zM303.54304 257.82848H186.51456c-4.03968 0 -7.31456 3.27488 -7.31456 7.31456v7.31456 c0 4.03968 3.27488 7.31456 7.31456 7.31456h117.02848c4.03968 0 7.31456 -3.27488 7.31456 -7.31456v-7.31456 C310.85696 261.10336 307.58272 257.82848 303.54304 257.82848zM266.97152 133.48544H186.51456c-4.03968 0 -7.31456 3.27488 -7.31456 7.31456v7.31456 c0 4.03968 3.27488 7.31456 7.31456 7.31456h80.45696c4.03968 0 7.31456 -3.27488 7.31456 -7.31456V140.8 C274.28544 136.76032 271.0112 133.48544 266.97152 133.48544zM252.34304 67.65696H186.51456c-4.03968 0 -7.31456 3.27488 -7.31456 7.31456v7.31456 c0 4.03968 3.27488 7.31456 7.31456 7.31456h65.82848c4.03968 0 7.31456 -3.27488 7.31456 -7.31456v-7.31456 C259.65696 70.93184 256.38272 67.65696 252.34304 67.65696zM165.19616 284.87808l-26.9376 -30.30464c-1.32672 -1.49312 -3.17504 -2.2592 -5.03616 -2.2592 c-1.4784 0 -2.96448 0.4832 -4.20416 1.47648l-16.83584 13.4688c-2.90368 2.32128 -3.37536 6.56 -1.05088 9.46368c2.32128 2.90688 6.56192 3.37728 9.4656 1.05216 l11.84256 -9.47328l22.69056 25.52704c2.46784 2.77888 6.7264 3.03168 9.50656 0.55872C167.4176 291.91488 167.6672 287.66016 165.19616 284.87808zM165.19616 219.80288l-26.9376 -30.30464c-1.32672 -1.49312 -3.17504 -2.2592 -5.03616 -2.2592c-1.4784 0 -2.96448 0.4832 -4.20416 1.47648l-16.83584 13.4688 c-2.90368 2.32128 -3.37536 6.56 -1.05088 9.46368c2.32128 2.90688 6.56192 3.37728 9.4656 1.05216l11.84256 -9.47328l22.69056 25.52704 c2.46784 2.77888 6.7264 3.03168 9.50656 0.55872C167.4176 226.83968 167.6672 222.58432 165.19616 219.80288zM165.19616 157.56864l-26.9376 -30.30464 c-1.32672 -1.49312 -3.17504 -2.2592 -5.03616 -2.2592c-1.4784 0 -2.96448 0.4832 -4.20416 1.47648l-16.83584 13.4688c-2.90368 2.32128 -3.37536 6.56 -1.05088 9.46368 c2.32128 2.90688 6.56192 3.37728 9.4656 1.05216l11.84256 -9.47328l22.69056 25.52704c2.46784 2.77888 6.7264 3.03168 9.50656 0.55872 C167.4176 164.60544 167.6672 160.35072 165.19616 157.56864zM165.19616 94.89536l-26.9376 -30.30464c-1.32672 -1.49312 -3.17504 -2.2592 -5.03616 -2.2592 c-1.4784 0 -2.96448 0.4832 -4.20416 1.47648l-16.83584 13.4688c-2.90368 2.32128 -3.37536 6.56 -1.05088 9.46368c2.32128 2.90688 6.56192 3.37728 9.4656 1.05216 l11.84256 -9.47328l22.69056 25.52704c2.46784 2.77888 6.7264 3.03168 9.50656 0.55872C167.4176 101.93216 167.6672 97.6768 165.19616 94.89536z"/></font></defs></svg>
